[{"line":1,"elements":[{"line":3,"name":"get all active users","description":"","id":"get-all-active-users","type":"scenario","keyword":"Scenario","steps":[{"name":"def query = {status:'active',gender:'female',id: 4462}","result":{"duration":1442000,"status":"passed"},"match":{"location":"karate","arguments":[]},"keyword":"*","line":4},{"name":"url baseUrl+ '\/public\/v1\/users'","result":{"duration":1978300,"status":"passed"},"match":{"location":"karate","arguments":[]},"keyword":"Given","line":5},{"name":"params query","result":{"duration":144800,"status":"passed"},"match":{"location":"karate","arguments":[]},"keyword":"And","line":6},{"name":"method GET","result":{"duration":692644300,"status":"passed"},"match":{"location":"karate","arguments":[]},"keyword":"When","line":7,"doc_string":{"content_type":"","value":"11:12:39.296 request:\n1 > GET https:\/\/gorest.co.in\/public\/v1\/users?status=active&gender=female&id=4462\n1 > Accept-Encoding: gzip,deflate\n1 > Connection: Keep-Alive\n1 > Host: gorest.co.in\n1 > User-Agent: Apache-HttpClient\/4.5.12 (Java\/1.8.0_202)\n\n11:12:39.725 response time in milliseconds: 432.07\n1 < 200\n1 < CF-Cache-Status: DYNAMIC\n1 < CF-RAY: 774e108a7c0c9c31-IAD\n1 < Cache-Control: max-age=0, private, must-revalidate\n1 < Connection: keep-alive\n1 < Content-Type: application\/json; charset=utf-8\n1 < Date: Mon, 05 Dec 2022 16:12:39 GMT\n1 < NEL: {\"success_fraction\":0,\"report_to\":\"cf-nel\",\"max_age\":604800}\n1 < Report-To: {\"endpoints\":[{\"url\":\"https:\\\/\\\/a.nel.cloudflare.com\\\/report\\\/v3?s=V%2FkIftHhT%2F92kjLOhaPh8CjY1XBFtax3gWcUAnm%2Bhvtzh%2F0s3TTkchAgTlZsgWBNZ6Av5fWGjTkgM%2FsJ30IQ0BU6Zs%2Biza6s0YGsp0uYwd6Rg%2F90sRvI7NrEL1YG9eM%3D\"}],\"group\":\"cf-nel\",\"max_age\":604800}\n1 < Server: cloudflare\n1 < Transfer-Encoding: chunked\n1 < alt-svc: h3=\":443\"; ma=86400, h3-29=\":443\"; ma=86400\n1 < etag: W\/\"970622193113a62c62d56c1bcd830784\"\n1 < referrer-policy: strict-origin-when-cross-origin\n1 < vary: Origin\n1 < x-content-type-options: nosniff\n1 < x-download-options: noopen\n1 < x-frame-options: SAMEORIGIN\n1 < x-permitted-cross-domain-policies: none\n1 < x-request-id: 484edfd5-0da2-401c-9daa-6f5857024b9a\n1 < x-runtime: 0.014771\n1 < x-xss-protection: 0\n{\"meta\":{\"pagination\":{\"total\":1,\"pages\":1,\"page\":1,\"limit\":10,\"links\":{\"previous\":null,\"current\":\"https:\/\/gorest.co.in\/public\/v1\/users?page=1\",\"next\":null}}},\"data\":[{\"id\":4462,\"name\":\"Surya Kaniyar\",\"email\":\"kaniyar_surya@cummerata.co\",\"gender\":\"female\",\"status\":\"active\"}]}","line":7}},{"name":"status 200","result":{"duration":9300,"status":"passed"},"match":{"location":"karate","arguments":[]},"keyword":"Then","line":8},{"name":"print response","result":{"duration":303100,"status":"passed"},"match":{"location":"karate","arguments":[]},"keyword":"*","line":9,"doc_string":{"content_type":"","value":"11:12:39.725 [print] {\n  \"data\": [\n    {\n      \"gender\": \"female\",\n      \"name\": \"Surya Kaniyar\",\n      \"id\": 4462,\n      \"email\": \"kaniyar_surya@cummerata.co\",\n      \"status\": \"active\"\n    }\n  ],\n  \"meta\": {\n    \"pagination\": {\n      \"total\": 1,\n      \"pages\": 1,\n      \"limit\": 10,\n      \"links\": {\n        \"next\": null,\n        \"current\": \"https:\/\/gorest.co.in\/public\/v1\/users?page=1\",\n        \"previous\": null\n      },\n      \"page\": 1\n    }\n  }\n}","line":9}}]},{"line":11,"name":"get all active users and geet the count","description":"","id":"get-all-active-users-and-geet-the-count","type":"scenario","keyword":"Scenario","steps":[{"name":"def query = {status:'active'}","result":{"duration":63200,"status":"passed"},"match":{"location":"karate","arguments":[]},"keyword":"*","line":12},{"name":"url baseUrl+ '\/public\/v1\/users'","result":{"duration":172400,"status":"passed"},"match":{"location":"karate","arguments":[]},"keyword":"Given","line":13},{"name":"params query","result":{"duration":46600,"status":"passed"},"match":{"location":"karate","arguments":[]},"keyword":"And","line":14},{"name":"method GET","result":{"duration":337774500,"status":"passed"},"match":{"location":"karate","arguments":[]},"keyword":"When","line":15,"doc_string":{"content_type":"","value":"11:12:39.737 request:\n1 > GET https:\/\/gorest.co.in\/public\/v1\/users?status=active\n1 > Accept-Encoding: gzip,deflate\n1 > Connection: Keep-Alive\n1 > Host: gorest.co.in\n1 > User-Agent: Apache-HttpClient\/4.5.12 (Java\/1.8.0_202)\n\n11:12:40.075 response time in milliseconds: 334.96\n1 < 200\n1 < CF-Cache-Status: DYNAMIC\n1 < CF-RAY: 774e108cbb8a9c1e-IAD\n1 < Cache-Control: max-age=0, private, must-revalidate\n1 < Connection: keep-alive\n1 < Content-Type: application\/json; charset=utf-8\n1 < Date: Mon, 05 Dec 2022 16:12:40 GMT\n1 < NEL: {\"success_fraction\":0,\"report_to\":\"cf-nel\",\"max_age\":604800}\n1 < Report-To: {\"endpoints\":[{\"url\":\"https:\\\/\\\/a.nel.cloudflare.com\\\/report\\\/v3?s=%2BnNzJyrZnQFIa2lmFJRms8rbJtWEDeEx1y%2Fxosm02TncQYmkpPeAXQog1DiwgXxLURjUUB2mVJfaQZ8yiepJGz3ke0dBct7Bcp6gAer8sikfEsGTVhBJASIeGCiKq8I%3D\"}],\"group\":\"cf-nel\",\"max_age\":604800}\n1 < Server: cloudflare\n1 < Transfer-Encoding: chunked\n1 < alt-svc: h3=\":443\"; ma=86400, h3-29=\":443\"; ma=86400\n1 < etag: W\/\"c45ad5358e26260888cfcbc2724a428e\"\n1 < referrer-policy: strict-origin-when-cross-origin\n1 < vary: Origin\n1 < x-content-type-options: nosniff\n1 < x-download-options: noopen\n1 < x-frame-options: SAMEORIGIN\n1 < x-permitted-cross-domain-policies: none\n1 < x-request-id: 90dfbd48-8a56-4b0d-9848-53e5b97b14bf\n1 < x-runtime: 0.023898\n1 < x-xss-protection: 0\n{\"meta\":{\"pagination\":{\"total\":2195,\"pages\":220,\"page\":1,\"limit\":10,\"links\":{\"previous\":null,\"current\":\"https:\/\/gorest.co.in\/public\/v1\/users?page=1\",\"next\":\"https:\/\/gorest.co.in\/public\/v1\/users?page=2\"}}},\"data\":[{\"id\":4462,\"name\":\"Surya Kaniyar\",\"email\":\"kaniyar_surya@cummerata.co\",\"gender\":\"female\",\"status\":\"active\"},{\"id\":4460,\"name\":\"Amritambu Guha\",\"email\":\"amritambu_guha@ankunding.com\",\"gender\":\"female\",\"status\":\"active\"},{\"id\":4457,\"name\":\"Basanti Varman\",\"email\":\"varman_basanti@johnson.com\",\"gender\":\"female\",\"status\":\"active\"},{\"id\":4456,\"name\":\"Kanchan Varma\",\"email\":\"varma_kanchan@collier.biz\",\"gender\":\"male\",\"status\":\"active\"},{\"id\":4455,\"name\":\"Meena Sethi\",\"email\":\"sethi_meena@harber.net\",\"gender\":\"male\",\"status\":\"active\"},{\"id\":4454,\"name\":\"Ganaka Mehrotra\",\"email\":\"mehrotra_ganaka@maggio.org\",\"gender\":\"male\",\"status\":\"active\"},{\"id\":4453,\"name\":\"Anandamayi Johar\",\"email\":\"anandamayi_johar@brekke.com\",\"gender\":\"male\",\"status\":\"active\"},{\"id\":4452,\"name\":\"Sucheta Kaur\",\"email\":\"kaur_sucheta@johnston.io\",\"gender\":\"male\",\"status\":\"active\"},{\"id\":4449,\"name\":\"Bandhu Tagore\",\"email\":\"tagore_bandhu@predovic-schoen.io\",\"gender\":\"male\",\"status\":\"active\"},{\"id\":4448,\"name\":\"Upendra Joshi\",\"email\":\"joshi_upendra@boehm-schuppe.co\",\"gender\":\"female\",\"status\":\"active\"}]}","line":15}},{"name":"status 200","result":{"duration":5900,"status":"passed"},"match":{"location":"karate","arguments":[]},"keyword":"Then","line":16},{"name":"def jsonResponse = response","result":{"duration":13600,"status":"passed"},"match":{"location":"karate","arguments":[]},"keyword":"*","line":17},{"name":"print jsonResponse","result":{"duration":355100,"status":"passed"},"match":{"location":"karate","arguments":[]},"keyword":"*","line":18,"doc_string":{"content_type":"","value":"11:12:40.075 [print] {\n  \"data\": [\n    {\n      \"gender\": \"female\",\n      \"name\": \"Surya Kaniyar\",\n      \"id\": 4462,\n      \"email\": \"kaniyar_surya@cummerata.co\",\n      \"status\": \"active\"\n    },\n    {\n      \"gender\": \"female\",\n      \"name\": \"Amritambu Guha\",\n      \"id\": 4460,\n      \"email\": \"amritambu_guha@ankunding.com\",\n      \"status\": \"active\"\n    },\n    {\n      \"gender\": \"female\",\n      \"name\": \"Basanti Varman\",\n      \"id\": 4457,\n      \"email\": \"varman_basanti@johnson.com\",\n      \"status\": \"active\"\n    },\n    {\n      \"gender\": \"male\",\n      \"name\": \"Kanchan Varma\",\n      \"id\": 4456,\n      \"email\": \"varma_kanchan@collier.biz\",\n      \"status\": \"active\"\n    },\n    {\n      \"gender\": \"male\",\n      \"name\": \"Meena Sethi\",\n      \"id\": 4455,\n      \"email\": \"sethi_meena@harber.net\",\n      \"status\": \"active\"\n    },\n    {\n      \"gender\": \"male\",\n      \"name\": \"Ganaka Mehrotra\",\n      \"id\": 4454,\n      \"email\": \"mehrotra_ganaka@maggio.org\",\n      \"status\": \"active\"\n    },\n    {\n      \"gender\": \"male\",\n      \"name\": \"Anandamayi Johar\",\n      \"id\": 4453,\n      \"email\": \"anandamayi_johar@brekke.com\",\n      \"status\": \"active\"\n    },\n    {\n      \"gender\": \"male\",\n      \"name\": \"Sucheta Kaur\",\n      \"id\": 4452,\n      \"email\": \"kaur_sucheta@johnston.io\",\n      \"status\": \"active\"\n    },\n    {\n      \"gender\": \"male\",\n      \"name\": \"Bandhu Tagore\",\n      \"id\": 4449,\n      \"email\": \"tagore_bandhu@predovic-schoen.io\",\n      \"status\": \"active\"\n    },\n    {\n      \"gender\": \"female\",\n      \"name\": \"Upendra Joshi\",\n      \"id\": 4448,\n      \"email\": \"joshi_upendra@boehm-schuppe.co\",\n      \"status\": \"active\"\n    }\n  ],\n  \"meta\": {\n    \"pagination\": {\n      \"total\": 2195,\n      \"pages\": 220,\n      \"limit\": 10,\n      \"links\": {\n        \"next\": \"https:\/\/gorest.co.in\/public\/v1\/users?page=2\",\n        \"current\": \"https:\/\/gorest.co.in\/public\/v1\/users?page=1\",\n        \"previous\": null\n      },\n      \"page\": 1\n    }\n  }\n}","line":18}},{"name":"def userCount = jsonResponse.data.length","result":{"duration":5438600,"status":"passed"},"match":{"location":"karate","arguments":[]},"keyword":"*","line":19},{"name":"print userCount","result":{"duration":147200,"status":"passed"},"match":{"location":"karate","arguments":[]},"keyword":"*","line":20,"doc_string":{"content_type":"","value":"11:12:40.081 [print] 10","line":20}},{"name":"match userCount ==10","result":{"duration":3083700,"status":"passed"},"match":{"location":"karate","arguments":[]},"keyword":"*","line":21}]}],"name":"src\/test\/java\/Features\/getapiwithquery.feature","description":"get API with Query Parameters","id":"get-api-with-query-parameters","keyword":"Feature","uri":"src\/test\/java\/Features\/getapiwithquery.feature"}]